---
http_interactions:
- request:
    method: get
    uri: https://api.flickr.com/services/rest?api_key=c2b5a4582c795703b930409fe96e1699&extras=&format=json&method=flickr.photos.search&nojsoncallback=1&page=2&per_page=50&sort=relevance&text=Bangkok
    body:
      encoding: US-ASCII
      string: ''
    headers:
      User-Agent:
      - Faraday v0.14.0
      Authorization:
      - OAuth oauth_consumer_key="c2b5a4582c795703b930409fe96e1699", oauth_nonce="73a9fa0fe82e219a880673fc9883447c",
        oauth_signature="8jHgvt6s9lrj5yDVufm4lKzqT90%3D", oauth_signature_method="HMAC-SHA1",
        oauth_timestamp="1524413780", oauth_token="", oauth_version="1.0"
      Accept-Encoding:
      - gzip;q=1.0,deflate;q=0.6,identity;q=0.3
      Accept:
      - "*/*"
  response:
    status:
      code: 200
      message: OK
    headers:
      Date:
      - Sun, 22 Apr 2018 16:16:20 GMT
      Content-Type:
      - application/json
      Content-Length:
      - '1334'
      P3p:
      - policyref="https://policies.yahoo.com/w3c/p3p.xml", CP="CAO DSP COR CUR ADM
        DEV TAI PSA PSD IVAi IVDi CONi TELo OTPi OUR DELi SAMi OTRi UNRi PUBi IND
        PHY ONL UNI PUR FIN COM NAV INT DEM CNT STA POL HEA PRE LOC GOV"
      X-Content-Type-Options:
      - nosniff
      Cache-Control:
      - private
      X-Served-By:
      - www248.flickr.gq1.yahoo.com
      X-Frame-Options:
      - SAMEORIGIN
      Vary:
      - Accept-Encoding
      Age:
      - '2'
      Via:
      - http/1.1 fts106.flickr.gq1.yahoo.com (ApacheTrafficServer [cMsSf ]), http/1.1
        r06.ycpi.sg3.yahoo.net (ApacheTrafficServer [cMsSf ])
      Server:
      - ATS
      Connection:
      - keep-alive
      Strict-Transport-Security:
      - max-age=15552000
      Expect-Ct:
      - max-age=31536000, report-uri="http://csp.yahoo.com/beacon/csp?src=yahoocom-expect-ct-report-only"
      Public-Key-Pins-Report-Only:
      - max-age=2592000; pin-sha256="2fRAUXyxl4A1/XHrKNBmc8bTkzA7y4FB/GLJuNAzCqY=";
        pin-sha256="2oALgLKofTmeZvoZ1y/fSZg7R9jPMix8eVA6DH4o/q8="; pin-sha256="Gtk3r1evlBrs0hG3fm3VoM19daHexDWP//OCmeeMr5M=";
        pin-sha256="I/Lt/z7ekCWanjD0Cvj5EqXls2lOaThEA0H2Bg4BT/o="; pin-sha256="JbQbUG5JMJUoI6brnx0x3vZF6jilxsapbXGVfjhN8Fg=";
        pin-sha256="SVqWumuteCQHvVIaALrOZXuzVVVeS7f4FGxxu6V+es4="; pin-sha256="UZJDjsNp1+4M5x9cbbdflB779y5YRBcV6Z6rBMLIrO4=";
        pin-sha256="Wd8xe/qfTwq3ylFNd3IpaqLHZbh2ZNCLluVzmeNkcpw="; pin-sha256="WoiWRyIOVNa9ihaBciRSC7XHjliYS9VwUGOIud4PB18=";
        pin-sha256="cAajgxHlj7GTSEIzIYIQxmEloOSoJq7VOaxWHfv72QM="; pin-sha256="dolnbtzEBnELx/9lOEQ22e6OZO/QNb6VSSX2XHA3E7A=";
        pin-sha256="i7WTqTvh0OioIruIfFR4kMPnBqrS2rdiVPl/s2uC/CY="; pin-sha256="iduNzFNKpwYZ3se/XV+hXcbUonlLw09QPa6AYUwpu4M=";
        pin-sha256="lnsM2T/O9/J84sJFdnrpsFp3awZJ+ZZbYpCWhGloaHI="; pin-sha256="r/mIkG3eEpVdm+u/ko/cwxzOMo1bk4TyHIlByibiA5E=";
        pin-sha256="uUwZgwDOxcBXrQcntwu+kYFpkiVkOaezL0WYEZ3anJc="; includeSubdomains;
        report-uri="http://csp.yahoo.com/beacon/csp?src=yahoocom-hpkp-report-only"
    body:
      encoding: ASCII-8BIT
      string: '{"photos":{"page":2,"pages":57375,"perpage":50,"total":"2868711","photo":[{"id":"27308476660","owner":"110839836@N07","secret":"1a11f647a6","server":"7790","farm":8,"title":"Bangkok","ispublic":1,"isfriend":0,"isfamily":0},{"id":"25589469941","owner":"97502594@N00","secret":"29e5183a85","server":"1626","farm":2,"title":"Bangkok","ispublic":1,"isfriend":0,"isfamily":0},{"id":"25676553073","owner":"97502594@N00","secret":"82ebc09091","server":"1608","farm":2,"title":"Bangkok","ispublic":1,"isfriend":0,"isfamily":0},{"id":"25919563831","owner":"97502594@N00","secret":"93989a884a","server":"1447","farm":2,"title":"Bangkok","ispublic":1,"isfriend":0,"isfamily":0},{"id":"35502372285","owner":"27656681@N00","secret":"193841823b","server":"4264","farm":5,"title":"Bangkok","ispublic":1,"isfriend":0,"isfamily":0},{"id":"24997553983","owner":"97502594@N00","secret":"00d0933bd0","server":"1444","farm":2,"title":"Bangkok","ispublic":1,"isfriend":0,"isfamily":0},{"id":"25285806319","owner":"97502594@N00","secret":"f0889b2aee","server":"1557","farm":2,"title":"Bangkok","ispublic":1,"isfriend":0,"isfamily":0},{"id":"25136951914","owner":"97502594@N00","secret":"e75e79173e","server":"1698","farm":2,"title":"Bangkok","ispublic":1,"isfriend":0,"isfamily":0},{"id":"25272685330","owner":"97502594@N00","secret":"ea1311ea93","server":"1653","farm":2,"title":"Bangkok","ispublic":1,"isfriend":0,"isfamily":0},{"id":"25822814592","owner":"97502594@N00","secret":"f0c9b12823","server":"1542","farm":2,"title":"Bangkok","ispublic":1,"isfriend":0,"isfamily":0},{"id":"25310936324","owner":"97502594@N00","secret":"87c08fdfe7","server":"1499","farm":2,"title":"Bangkok","ispublic":1,"isfriend":0,"isfamily":0},{"id":"25237059594","owner":"97502594@N00","secret":"18e196c554","server":"1621","farm":2,"title":"Bangkok","ispublic":1,"isfriend":0,"isfamily":0},{"id":"25713979930","owner":"97502594@N00","secret":"460a91e425","server":"1695","farm":2,"title":"Bangkok","ispublic":1,"isfriend":0,"isfamily":0},{"id":"4309976890","owner":"11818134@N00","secret":"4ed6c99155","server":"2783","farm":3,"title":"Bangkok","ispublic":1,"isfriend":0,"isfamily":0},{"id":"9194121112","owner":"65997300@N08","secret":"f73fbcbb6c","server":"7431","farm":8,"title":"Bangkok","ispublic":1,"isfriend":0,"isfamily":0},{"id":"25272673200","owner":"97502594@N00","secret":"3142d6b082","server":"1658","farm":2,"title":"Bangkok","ispublic":1,"isfriend":0,"isfamily":0},{"id":"25393842992","owner":"97502594@N00","secret":"f0c7f59533","server":"1718","farm":2,"title":"Bangkok","ispublic":1,"isfriend":0,"isfamily":0},{"id":"18993918553","owner":"130267349@N05","secret":"e503d97328","server":"394","farm":1,"title":"Bangkok","ispublic":1,"isfriend":0,"isfamily":0},{"id":"25806976551","owner":"97502594@N00","secret":"3be67e33b6","server":"1447","farm":2,"title":"Bangkok","ispublic":1,"isfriend":0,"isfamily":0},{"id":"26107912922","owner":"97502594@N00","secret":"1cc330d1f3","server":"1525","farm":2,"title":"Bangkok","ispublic":1,"isfriend":0,"isfamily":0},{"id":"25381332270","owner":"97502594@N00","secret":"0ebccc8901","server":"1479","farm":2,"title":"Bangkok","ispublic":1,"isfriend":0,"isfamily":0},{"id":"25973089551","owner":"97502594@N00","secret":"54d06d9cdf","server":"1711","farm":2,"title":"Bangkok","ispublic":1,"isfriend":0,"isfamily":0},{"id":"25769183266","owner":"97502594@N00","secret":"fc70845520","server":"1666","farm":2,"title":"Bangkok","ispublic":1,"isfriend":0,"isfamily":0},{"id":"25301588090","owner":"97502594@N00","secret":"6072a560e6","server":"1718","farm":2,"title":"Bangkok","ispublic":1,"isfriend":0,"isfamily":0},{"id":"25168627983","owner":"97502594@N00","secret":"3f769fc2d1","server":"1635","farm":2,"title":"Bangkok","ispublic":1,"isfriend":0,"isfamily":0},{"id":"25793071076","owner":"97502594@N00","secret":"fbf60cb2bd","server":"1616","farm":2,"title":"Bangkok","ispublic":1,"isfriend":0,"isfamily":0},{"id":"25026609343","owner":"97502594@N00","secret":"36f8bd5381","server":"1501","farm":2,"title":"Bangkok","ispublic":1,"isfriend":0,"isfamily":0},{"id":"25817719176","owner":"97502594@N00","secret":"496684537b","server":"1457","farm":2,"title":"Bangkok","ispublic":1,"isfriend":0,"isfamily":0},{"id":"22368385362","owner":"41574962@N03","secret":"cb407157f4","server":"607","farm":1,"title":"Bangkok","ispublic":1,"isfriend":0,"isfamily":0},{"id":"25767389805","owner":"97502594@N00","secret":"ddcd440842","server":"1640","farm":2,"title":"Bangkok","ispublic":1,"isfriend":0,"isfamily":0},{"id":"14673369469","owner":"53242018@N07","secret":"e466aacd6d","server":"3894","farm":4,"title":"Bangkok","ispublic":1,"isfriend":0,"isfamily":0},{"id":"6738950369","owner":"30695544@N04","secret":"947668b22f","server":"7154","farm":8,"title":"Bangkok","ispublic":1,"isfriend":0,"isfamily":0},{"id":"14874589425","owner":"49200373@N02","secret":"454036ac20","server":"5570","farm":6,"title":"Bangkok","ispublic":1,"isfriend":0,"isfamily":0},{"id":"7573323680","owner":"68000691@N07","secret":"ce9a40388b","server":"7260","farm":8,"title":"bangkok...","ispublic":1,"isfriend":0,"isfamily":0},{"id":"25144786719","owner":"97502594@N00","secret":"a31e4ce414","server":"1575","farm":2,"title":"Bangkok","ispublic":1,"isfriend":0,"isfamily":0},{"id":"25556071523","owner":"97502594@N00","secret":"c82b7357b9","server":"1709","farm":2,"title":"Bangkok","ispublic":1,"isfriend":0,"isfamily":0},{"id":"25494574590","owner":"97502594@N00","secret":"b52f11bbd9","server":"1461","farm":2,"title":"Bangkok","ispublic":1,"isfriend":0,"isfamily":0},{"id":"26096375136","owner":"97502594@N00","secret":"8480c370aa","server":"1491","farm":2,"title":"Bangkok","ispublic":1,"isfriend":0,"isfamily":0},{"id":"24871027503","owner":"30335031@N04","secret":"e51b06d534","server":"1533","farm":2,"title":"Bangkok","ispublic":1,"isfriend":0,"isfamily":0},{"id":"25682169885","owner":"97502594@N00","secret":"d732d9bd28","server":"1607","farm":2,"title":"Bangkok","ispublic":1,"isfriend":0,"isfamily":0},{"id":"9682429367","owner":"27656681@N00","secret":"6bc3c57083","server":"3811","farm":4,"title":"Bangkok","ispublic":1,"isfriend":0,"isfamily":0},{"id":"25973085211","owner":"97502594@N00","secret":"4e63098f0c","server":"1665","farm":2,"title":"Bangkok","ispublic":1,"isfriend":0,"isfamily":0},{"id":"26134042261","owner":"97502594@N00","secret":"841e441b56","server":"1684","farm":2,"title":"Bangkok","ispublic":1,"isfriend":0,"isfamily":0},{"id":"9087709216","owner":"65997300@N08","secret":"7b34177842","server":"5344","farm":6,"title":"Bangkok","ispublic":1,"isfriend":0,"isfamily":0},{"id":"25213317574","owner":"97502594@N00","secret":"f4df5b2e4d","server":"1554","farm":2,"title":"Bangkok","ispublic":1,"isfriend":0,"isfamily":0},{"id":"14504834800","owner":"9015289@N04","secret":"8acc33ac65","server":"2910","farm":3,"title":"Bangkok","ispublic":1,"isfriend":0,"isfamily":0},{"id":"331322196","owner":"76058536@N00","secret":"70147e3be6","server":"156","farm":1,"title":"Bangkok","ispublic":1,"isfriend":0,"isfamily":0},{"id":"8650390553","owner":"40301524@N03","secret":"8985db65e8","server":"8397","farm":9,"title":"Bangkok","ispublic":1,"isfriend":0,"isfamily":0},{"id":"15150933984","owner":"32594277@N04","secret":"f6e00589d1","server":"5613","farm":6,"title":"Bangkok","ispublic":1,"isfriend":0,"isfamily":0},{"id":"21840765555","owner":"133228748@N03","secret":"6c2a179cbf","server":"5764","farm":6,"title":"Bangkok","ispublic":1,"isfriend":0,"isfamily":0}]},"stat":"ok"}'
    http_version: 
  recorded_at: Sun, 22 Apr 2018 16:16:21 GMT
recorded_with: VCR 4.0.0
